%!PS-Adobe-3.0
%%Title: /usr/share/vim/vim90/doc/help.txt
%%For: 1048823
%%Creator: VIM - Vi IMproved 9.0 (2022 Jun 28)
%%CreationDate: Tue Nov 29 12:36:12 2022
%%DocumentData: Clean8Bit
%%Orientation: Portrait
%%Pages: (atend)
%%PageOrder: Ascend
%%BoundingBox: 59 49 516 800
%%DocumentMedia: A4 595 842 0 () ()
%%DocumentNeededResources: font Courier
%%+ font Courier-Bold
%%+ font Courier-Oblique
%%+ font Courier-BoldOblique
%%DocumentSuppliedResources: procset VIM-Prolog 1.4 1
%%+ encoding VIM-latin1 1.0 0
%%Requirements: duplex collate color
%%EndComments
%%BeginDefaults
%%PageResources: font Courier
%%+ font Courier-Bold
%%+ font Courier-Oblique
%%+ font Courier-BoldOblique
%%PageMedia: A4
%%EndDefaults
%%BeginProlog
%%BeginResource: procset VIM-Prolog
%%BeginDocument: /usr/share/vim/vim90/print/prolog.ps
%!PS-Adobe-3.0 Resource-ProcSet
%%Title: VIM-Prolog
%%Version: 1.4 1
%%EndComments
% Editing of this file is NOT RECOMMENDED.  You run a very good risk of causing
% all PostScript printing from VIM failing if you do.  PostScript is not called
% a write-only language for nothing!
/packedarray where not{userdict begin/setpacking/pop load def/currentpacking
false def end}{pop}ifelse/CP currentpacking def true setpacking
/bd{bind def}bind def/ld{load def}bd/ed{exch def}bd/d/def ld
/db{dict begin}bd/cde{currentdict end}bd
/T true d/F false d
/SO null d/sv{/SO save d}bd/re{SO restore}bd
/L2 systemdict/languagelevel 2 copy known{get exec}{pop pop 1}ifelse 2 ge d
/m/moveto ld/s/show ld /ms{m s}bd /g/setgray ld/r/setrgbcolor ld/sp{showpage}bd
/gs/gsave ld/gr/grestore ld/cp/currentpoint ld
/ul{gs UW setlinewidth cp UO add 2 copy newpath m 3 1 roll add exch lineto
stroke gr}bd
/bg{gs r cp BO add 4 -2 roll rectfill gr}bd
/sl{90 rotate 0 exch translate}bd
L2{
/sspd{mark exch{setpagedevice}stopped cleartomark}bd
/nc{1 db/NumCopies ed cde sspd}bd
/sps{3 db/Orientation ed[3 1 roll]/PageSize ed/ImagingBBox null d cde sspd}bd
/dt{2 db/Tumble ed/Duplex ed cde sspd}bd
/c{1 db/Collate ed cde sspd}bd
}{
/nc{/#copies ed}bd
/sps{statusdict/setpage get exec}bd
/dt{statusdict/settumble 2 copy known{get exec}{pop pop pop}ifelse
statusdict/setduplexmode 2 copy known{get exec}{pop pop pop}ifelse}bd
/c{pop}bd
}ifelse
/ffs{findfont exch scalefont d}bd/sf{setfont}bd
/ref{1 db findfont dup maxlength dict/NFD ed{exch dup/FID ne{exch NFD 3 1 roll
put}{pop pop}ifelse}forall/Encoding findresource dup length 256 eq{NFD/Encoding
3 -1 roll put}{pop}ifelse NFD dup/FontType get 3 ne{/CharStrings}{/CharProcs}
ifelse 2 copy known{2 copy get dup maxlength dict copy[/questiondown/space]{2
copy known{2 copy get 2 index/.notdef 3 -1 roll put pop exit}if pop}forall put
}{pop pop}ifelse dup NFD/FontName 3 -1 roll put NFD definefont pop end}bd
CP setpacking
(\004)cvn{}bd
% vim:ff=unix:
%%EOF
%%EndDocument
%%EndResource
%%BeginResource: encoding VIM-latin1
%%BeginDocument: /usr/share/vim/vim90/print/latin1.ps
%!PS-Adobe-3.0 Resource-Encoding
%%Title: VIM-latin1
%%Version: 1.0 0
%%EndComments
/VIM-latin1[
/.notdef /.notdef /.notdef /.notdef /.notdef /.notdef /.notdef /.notdef
/.notdef /.notdef /.notdef /.notdef /.notdef /.notdef /.notdef /.notdef
/.notdef /.notdef /.notdef /.notdef /.notdef /.notdef /.notdef /.notdef
/.notdef /.notdef /.notdef /.notdef /.notdef /.notdef /.notdef /.notdef
/space /exclam /quotedbl /numbersign /dollar /percent /ampersand /quotesingle
/parenleft /parenright /asterisk /plus /comma /minus /period /slash
/zero /one /two /three /four /five /six /seven
/eight /nine /colon /semicolon /less /equal /greater /question
/at /A /B /C /D /E /F /G
/H /I /J /K /L /M /N /O
/P /Q /R /S /T /U /V /W
/X /Y /Z /bracketleft /backslash /bracketright /asciicircum /underscore
/grave /a /b /c /d /e /f /g
/h /i /j /k /l /m /n /o
/p /q /r /s /t /u /v /w
/x /y /z /braceleft /bar /braceright /asciitilde /.notdef
/.notdef /.notdef /.notdef /.notdef /.notdef /.notdef /.notdef /.notdef
/.notdef /.notdef /.notdef /.notdef /.notdef /.notdef /.notdef /.notdef
/.notdef /.notdef /.notdef /.notdef /.notdef /.notdef /.notdef /.notdef
/.notdef /.notdef /.notdef /.notdef /.notdef /.notdef /.notdef /.notdef
/space /exclamdown /cent /sterling /currency /yen /brokenbar /section
/dieresis /copyright /ordfeminine /guillemotleft /logicalnot /hyphen /registered /macron
/degree /plusminus /twosuperior /threesuperior /acute /mu /paragraph /periodcentered
/cedilla /onesuperior /ordmasculine /guillemotright /onequarter /onehalf /threequarters /questiondown
/Agrave /Aacute /Acircumflex /Atilde /Adieresis /Aring /AE /Ccedilla
/Egrave /Eacute /Ecircumflex /Edieresis /Igrave /Iacute /Icircumflex /Idieresis
/Eth /Ntilde /Ograve /Oacute /Ocircumflex /Otilde /Odieresis /multiply
/Oslash /Ugrave /Uacute /Ucircumflex /Udieresis /Yacute /Thorn /germandbls
/agrave /aacute /acircumflex /atilde /adieresis /aring /ae /ccedilla
/egrave /eacute /ecircumflex /edieresis /igrave /iacute /icircumflex /idieresis
/eth /ntilde /ograve /oacute /ocircumflex /otilde /odieresis /divide
/oslash /ugrave /uacute /ucircumflex /udieresis /yacute /thorn /ydieresis]
/Encoding defineresource pop
% vim:ff=unix:
%%EOF
%%EndDocument
%%EndResource
%%EndProlog
%%BeginSetup
595 842 0 sps
1 nc
T F dt
T c
%%IncludeResource: font Courier
/_F0 /VIM-latin1 /Courier ref
/F0 10 /_F0 ffs
%%IncludeResource: font Courier-Bold
/_F1 /VIM-latin1 /Courier-Bold ref
/F1 10 /_F1 ffs
%%IncludeResource: font Courier-Oblique
/_F2 /VIM-latin1 /Courier-Oblique ref
/F2 10 /_F2 ffs
%%IncludeResource: font Courier-BoldOblique
/_F3 /VIM-latin1 /Courier-BoldOblique ref
/F3 10 /_F3 ffs
/UO -1 d
/UW 0.5 d
/BO -2.5 d
%%EndSetup
%%Page: 1 1
%%BeginPageSetup
sv
0 g
F0 sf
%%EndPageSetup
F1 sf
(help.txt[Help][-]                                                             Page 1)59.5 792.4 ms
F0 sf
0 0.498 0.498 r
(     1)59.5 772.4 ms
0 g
(*)107.5 772.4 ms
0.498 0.125 0.498 r
(help.txt)s
0 g
(*      For )s
F1 sf
0.498 0.498 0 r
(Vim version 9.0.)s
F0 sf
0 g
(  Last change: 2022 May 13)s
0 0.498 0.498 r
(     2)59.5 762.4 ms
(     3)59.5 752.4 ms
0 g
(                        VIM - main help file)107.5 752.4 ms
0 0.498 0.498 r
(     4)59.5 742.4 ms
0 g
(                                                                         k)107.5 742.4 ms
0 0.498 0.498 r
(     5)59.5 732.4 ms
0 g
(      Move around:  Use the cursor keys, or "h" to go left,            h   l)107.5 732.4 ms
0 0.498 0.498 r
(     6)59.5 722.4 ms
0 g
(                    "j" to go down, "k" to go up, "l" to go right.       j)107.5 722.4 ms
0 0.498 0.498 r
(     7)59.5 712.4 ms
0 g
(Close this window:  Use ":q<Enter>".)107.5 712.4 ms
0 0.498 0.498 r
(     8)59.5 702.4 ms
0 g
(   Get out of Vim:  Use ":qa!<Enter>" \(careful, all changes are lost!\).)107.5 702.4 ms
0 0.498 0.498 r
(     9)59.5 692.4 ms
(    10)59.5 682.4 ms
0 g
(Jump to a subject:  Position the cursor on a tag \(e.g. |)107.5 682.4 ms
F1 sf
0.498 0.498 0 r
(bars)s
F0 sf
0 g
(|\) and hit CTRL-)s
(].)107.5 672.4 ms
0 0.498 0.498 r
(    11)59.5 662.4 ms
0 g
(   With the mouse:  ":set mouse=a" to enable the mouse \(in xterm or GUI\).)107.5 662.4 ms
0 0.498 0.498 r
(    12)59.5 652.4 ms
0 g
(                    Double-click the left mouse button on a tag, e.g. |)107.5 652.4 ms
F1 sf
0.498 0.498 0 r
(bars)s
F0 sf
0 g
(|)s
(.)107.5 642.4 ms
0 0.498 0.498 r
(    13)59.5 632.4 ms
0 g
(        Jump back:  Type CTRL-O.  Repeat to go further back.)107.5 632.4 ms
0 0.498 0.498 r
(    14)59.5 622.4 ms
(    15)59.5 612.4 ms
0 g
(Get specific help:  It is possible to go directly to whatever you want help)107.5 612.4 ms
0 0.498 0.498 r
(    16)59.5 602.4 ms
0 g
(                    on, by giving an argument to the |)107.5 602.4 ms
F1 sf
0.498 0.498 0 r
(:help)s
F0 sf
0 g
(| command.)s
0 0.498 0.498 r
(    17)59.5 592.4 ms
0 g
(                    Prepend something to specify the context:  *)107.5 592.4 ms
0.498 0.125 0.498 r
(help-context)s
0 g
(*)107.5 582.4 ms
0 0.498 0.498 r
(    18)59.5 572.4 ms
(    19)59.5 562.4 ms
0 g
(                          )107.5 562.4 ms
0 0 0.376 r
(WHAT                  PREPEND    EXAMPLE)s
0 g
(      ~)s
0 0.498 0.498 r
(    20)59.5 552.4 ms
0 g
(                      Normal mode command                  :help x)107.5 552.4 ms
0 0.498 0.498 r
(    21)59.5 542.4 ms
0 g
(                      Visual mode command         v_       :help v_u)107.5 542.4 ms
0 0.498 0.498 r
(    22)59.5 532.4 ms
0 g
(                      Insert mode command         i_       :help i_<Esc>)107.5 532.4 ms
0 0.498 0.498 r
(    23)59.5 522.4 ms
0 g
(                      Command-line command        :        :help :quit)107.5 522.4 ms
0 0.498 0.498 r
(    24)59.5 512.4 ms
0 g
(                      Command-line editing        c_       :help c_<Del>)107.5 512.4 ms
0 0.498 0.498 r
(    25)59.5 502.4 ms
0 g
(                      Vim command argument        -        :help -r)107.5 502.4 ms
0 0.498 0.498 r
(    26)59.5 492.4 ms
0 g
(                      Option                      '        :help )107.5 492.4 ms
0.188 0.188 0.498 r
('textwidth')s
0 0.498 0.498 r
(    27)59.5 482.4 ms
0 g
(                      Regular expression          /        :help /[)107.5 482.4 ms
0 0.498 0.498 r
(    28)59.5 472.4 ms
0 g
(                    See |)107.5 472.4 ms
F1 sf
0.498 0.498 0 r
(help-summary)s
F0 sf
0 g
(| for more contexts and an explanation.)s
0 0.498 0.498 r
(    29)59.5 462.4 ms
0 g
(                    See |)107.5 462.4 ms
F1 sf
0.498 0.498 0 r
(notation)s
F0 sf
0 g
(| for an explanation of the help syntax.)s
0 0.498 0.498 r
(    30)59.5 452.4 ms
(    31)59.5 442.4 ms
0 g
(  Search for help:  Type ":help word", then hit CTRL-D to see matching)107.5 442.4 ms
0 0.498 0.498 r
(    32)59.5 432.4 ms
0 g
(                    help entries for "word".)107.5 432.4 ms
0 0.498 0.498 r
(    33)59.5 422.4 ms
0 g
(                    Or use ":helpgrep word". |)107.5 422.4 ms
F1 sf
0.498 0.498 0 r
(:helpgrep)s
F0 sf
0 g
(|)s
0 0.498 0.498 r
(    34)59.5 412.4 ms
(    35)59.5 402.4 ms
0 g
(  Getting started:  Do the Vim tutor, a 30-minute interactive course for the)107.5 402.4 ms
0 0.498 0.498 r
(    36)59.5 392.4 ms
0 g
(                    basic commands, see |)107.5 392.4 ms
F1 sf
0.498 0.498 0 r
(vimtutor)s
F0 sf
0 g
(|.)s
0 0.498 0.498 r
(    37)59.5 382.4 ms
0 g
(                    Read the user manual from start to end: |)107.5 382.4 ms
F1 sf
0.498 0.498 0 r
(usr_01.txt)s
F0 sf
0 g
(|)s
0 0.498 0.498 r
(    38)59.5 372.4 ms
(    39)59.5 362.4 ms
0 g
(Vim stands for Vi IMproved.  Most of Vim was made by Bram Moolenaar, but onl)107.5 362.4 ms
(y)107.5 352.4 ms
0 0.498 0.498 r
(    40)59.5 342.4 ms
0 g
(through the help of many others.  See |)107.5 342.4 ms
F1 sf
0.498 0.498 0 r
(credits)s
F0 sf
0 g
(|.)s
0 0.498 0.498 r
(    41)59.5 332.4 ms
0 0 0.376 r
(----------------------------------------------------------------------------)107.5 332.4 ms
(--)107.5 322.4 ms
0 0.498 0.498 r
(    42)59.5 312.4 ms
0 g
(                                                *)107.5 312.4 ms
0.498 0.125 0.498 r
(doc-file-list)s
0 g
(* *)s
0.498 0.125 0.498 r
(Q_ct)s
0 g
(*)s
0 0.498 0.498 r
(    43)59.5 302.4 ms
0 g
(BASIC:)107.5 302.4 ms
0 0.498 0.498 r
(    44)59.5 292.4 ms
0 g
(|)107.5 292.4 ms
F1 sf
0.498 0.498 0 r
(quickref)s
F0 sf
0 g
(|      Overview of the most common commands you will use)s
0 0.498 0.498 r
(    45)59.5 282.4 ms
0 g
(|)107.5 282.4 ms
F1 sf
0.498 0.498 0 r
(tutor)s
F0 sf
0 g
(|         30-minute interactive course for beginners)s
0 0.498 0.498 r
(    46)59.5 272.4 ms
0 g
(|)107.5 272.4 ms
F1 sf
0.498 0.498 0 r
(copying)s
F0 sf
0 g
(|       About copyrights)s
0 0.498 0.498 r
(    47)59.5 262.4 ms
0 g
(|)107.5 262.4 ms
F1 sf
0.498 0.498 0 r
(iccf)s
F0 sf
0 g
(|          Helping poor children in Uganda)s
0 0.498 0.498 r
(    48)59.5 252.4 ms
0 g
(|)107.5 252.4 ms
F1 sf
0.498 0.498 0 r
(sponsor)s
F0 sf
0 g
(|       Sponsor Vim development, become a registered Vim user)s
0 0.498 0.498 r
(    49)59.5 242.4 ms
0 g
(|)107.5 242.4 ms
F1 sf
0.498 0.498 0 r
(www)s
F0 sf
0 g
(|           Vim on the World Wide Web)s
0 0.498 0.498 r
(    50)59.5 232.4 ms
0 g
(|)107.5 232.4 ms
F1 sf
0.498 0.498 0 r
(bugs)s
F0 sf
0 g
(|          Where to send bug reports)s
0 0.498 0.498 r
(    51)59.5 222.4 ms
(    52)59.5 212.4 ms
0 g
(USER MANUAL: These files explain how to accomplish an editing task.)107.5 212.4 ms
0 0.498 0.498 r
(    53)59.5 202.4 ms
(    54)59.5 192.4 ms
0 g
(|)107.5 192.4 ms
F1 sf
0.498 0.498 0 r
(usr_toc.txt)s
F0 sf
0 g
(|   Table Of Contents)s
0 0.498 0.498 r
(    55)59.5 182.4 ms
(    56)59.5 172.4 ms
0 0 0.376 r
(Getting Started)107.5 172.4 ms
0 g
( ~)s
0 0.498 0.498 r
(    57)59.5 162.4 ms
0 g
(|)107.5 162.4 ms
F1 sf
0.498 0.498 0 r
(usr_01.txt)s
F0 sf
0 g
(|  About the manuals)s
0 0.498 0.498 r
(    58)59.5 152.4 ms
0 g
(|)107.5 152.4 ms
F1 sf
0.498 0.498 0 r
(usr_02.txt)s
F0 sf
0 g
(|  The first steps in Vim)s
0 0.498 0.498 r
(    59)59.5 142.4 ms
0 g
(|)107.5 142.4 ms
F1 sf
0.498 0.498 0 r
(usr_03.txt)s
F0 sf
0 g
(|  Moving around)s
0 0.498 0.498 r
(    60)59.5 132.4 ms
0 g
(|)107.5 132.4 ms
F1 sf
0.498 0.498 0 r
(usr_04.txt)s
F0 sf
0 g
(|  Making small changes)s
0 0.498 0.498 r
(    61)59.5 122.4 ms
0 g
(|)107.5 122.4 ms
F1 sf
0.498 0.498 0 r
(usr_05.txt)s
F0 sf
0 g
(|  Set your settings)s
0 0.498 0.498 r
(    62)59.5 112.4 ms
0 g
(|)107.5 112.4 ms
F1 sf
0.498 0.498 0 r
(usr_06.txt)s
F0 sf
0 g
(|  Using syntax highlighting)s
0 0.498 0.498 r
(    63)59.5 102.4 ms
0 g
(|)107.5 102.4 ms
F1 sf
0.498 0.498 0 r
(usr_07.txt)s
F0 sf
0 g
(|  Editing more than one file)s
0 0.498 0.498 r
(    64)59.5 92.4 ms
0 g
(|)107.5 92.4 ms
F1 sf
0.498 0.498 0 r
(usr_08.txt)s
F0 sf
0 g
(|  Splitting windows)s
0 0.498 0.498 r
(    65)59.5 82.4 ms
0 g
(|)107.5 82.4 ms
F1 sf
0.498 0.498 0 r
(usr_09.txt)s
F0 sf
0 g
(|  Using the GUI)s
0 0.498 0.498 r
(    66)59.5 72.4 ms
0 g
(|)107.5 72.4 ms
F1 sf
0.498 0.498 0 r
(usr_10.txt)s
F0 sf
0 g
(|  Making big changes)s
0 0.498 0.498 r
(    67)59.5 62.4 ms
0 g
(|)107.5 62.4 ms
F1 sf
0.498 0.498 0 r
(usr_11.txt)s
F0 sf
0 g
(|  Recovering from a crash)s
0 0.498 0.498 r
(    68)59.5 52.4 ms
0 g
(|)107.5 52.4 ms
F1 sf
0.498 0.498 0 r
(usr_12.txt)s
F0 sf
0 g
(|  Clever tricks)s
re sp
%%PageTrailer
%%Page: 2 2
%%BeginPageSetup
sv
0 g
F0 sf
%%EndPageSetup
F1 sf
(help.txt[Help][-]                                                             Page 2)59.5 792.4 ms
F0 sf
0 0.498 0.498 r
(    69)59.5 772.4 ms
(    70)59.5 762.4 ms
0 0 0.376 r
(Editing Effectively)107.5 762.4 ms
0 g
( ~)s
0 0.498 0.498 r
(    71)59.5 752.4 ms
0 g
(|)107.5 752.4 ms
F1 sf
0.498 0.498 0 r
(usr_20.txt)s
F0 sf
0 g
(|  Typing command-line commands quickly)s
0 0.498 0.498 r
(    72)59.5 742.4 ms
0 g
(|)107.5 742.4 ms
F1 sf
0.498 0.498 0 r
(usr_21.txt)s
F0 sf
0 g
(|  Go away and come back)s
0 0.498 0.498 r
(    73)59.5 732.4 ms
0 g
(|)107.5 732.4 ms
F1 sf
0.498 0.498 0 r
(usr_22.txt)s
F0 sf
0 g
(|  Finding the file to edit)s
0 0.498 0.498 r
(    74)59.5 722.4 ms
0 g
(|)107.5 722.4 ms
F1 sf
0.498 0.498 0 r
(usr_23.txt)s
F0 sf
0 g
(|  Editing other files)s
0 0.498 0.498 r
(    75)59.5 712.4 ms
0 g
(|)107.5 712.4 ms
F1 sf
0.498 0.498 0 r
(usr_24.txt)s
F0 sf
0 g
(|  Inserting quickly)s
0 0.498 0.498 r
(    76)59.5 702.4 ms
0 g
(|)107.5 702.4 ms
F1 sf
0.498 0.498 0 r
(usr_25.txt)s
F0 sf
0 g
(|  Editing formatted text)s
0 0.498 0.498 r
(    77)59.5 692.4 ms
0 g
(|)107.5 692.4 ms
F1 sf
0.498 0.498 0 r
(usr_26.txt)s
F0 sf
0 g
(|  Repeating)s
0 0.498 0.498 r
(    78)59.5 682.4 ms
0 g
(|)107.5 682.4 ms
F1 sf
0.498 0.498 0 r
(usr_27.txt)s
F0 sf
0 g
(|  Search commands and patterns)s
0 0.498 0.498 r
(    79)59.5 672.4 ms
0 g
(|)107.5 672.4 ms
F1 sf
0.498 0.498 0 r
(usr_28.txt)s
F0 sf
0 g
(|  Folding)s
0 0.498 0.498 r
(    80)59.5 662.4 ms
0 g
(|)107.5 662.4 ms
F1 sf
0.498 0.498 0 r
(usr_29.txt)s
F0 sf
0 g
(|  Moving through programs)s
0 0.498 0.498 r
(    81)59.5 652.4 ms
0 g
(|)107.5 652.4 ms
F1 sf
0.498 0.498 0 r
(usr_30.txt)s
F0 sf
0 g
(|  Editing programs)s
0 0.498 0.498 r
(    82)59.5 642.4 ms
0 g
(|)107.5 642.4 ms
F1 sf
0.498 0.498 0 r
(usr_31.txt)s
F0 sf
0 g
(|  Exploiting the GUI)s
0 0.498 0.498 r
(    83)59.5 632.4 ms
0 g
(|)107.5 632.4 ms
F1 sf
0.498 0.498 0 r
(usr_32.txt)s
F0 sf
0 g
(|  The undo tree)s
0 0.498 0.498 r
(    84)59.5 622.4 ms
(    85)59.5 612.4 ms
0 0 0.376 r
(Tuning Vim)107.5 612.4 ms
0 g
( ~)s
0 0.498 0.498 r
(    86)59.5 602.4 ms
0 g
(|)107.5 602.4 ms
F1 sf
0.498 0.498 0 r
(usr_40.txt)s
F0 sf
0 g
(|  Make new commands)s
0 0.498 0.498 r
(    87)59.5 592.4 ms
0 g
(|)107.5 592.4 ms
F1 sf
0.498 0.498 0 r
(usr_41.txt)s
F0 sf
0 g
(|  Write a Vim script)s
0 0.498 0.498 r
(    88)59.5 582.4 ms
0 g
(|)107.5 582.4 ms
F1 sf
0.498 0.498 0 r
(usr_42.txt)s
F0 sf
0 g
(|  Add new menus)s
0 0.498 0.498 r
(    89)59.5 572.4 ms
0 g
(|)107.5 572.4 ms
F1 sf
0.498 0.498 0 r
(usr_43.txt)s
F0 sf
0 g
(|  Using filetypes)s
0 0.498 0.498 r
(    90)59.5 562.4 ms
0 g
(|)107.5 562.4 ms
F1 sf
0.498 0.498 0 r
(usr_44.txt)s
F0 sf
0 g
(|  Your own syntax highlighted)s
0 0.498 0.498 r
(    91)59.5 552.4 ms
0 g
(|)107.5 552.4 ms
F1 sf
0.498 0.498 0 r
(usr_45.txt)s
F0 sf
0 g
(|  Select your language)s
0 0.498 0.498 r
(    92)59.5 542.4 ms
(    93)59.5 532.4 ms
0 0 0.376 r
(Writing Vim scripts)107.5 532.4 ms
0 g
( ~)s
0 0.498 0.498 r
(    94)59.5 522.4 ms
0 g
(|)107.5 522.4 ms
F1 sf
0.498 0.498 0 r
(usr_50.txt)s
F0 sf
0 g
(|  Advanced Vim script writing)s
0 0.498 0.498 r
(    95)59.5 512.4 ms
0 g
(|)107.5 512.4 ms
F1 sf
0.498 0.498 0 r
(usr_51.txt)s
F0 sf
0 g
(|  Create a plugin)s
0 0.498 0.498 r
(    96)59.5 502.4 ms
0 g
(|)107.5 502.4 ms
F1 sf
0.498 0.498 0 r
(usr_52.txt)s
F0 sf
0 g
(|  Write plugins using Vim9 script)s
0 0.498 0.498 r
(    97)59.5 492.4 ms
(    98)59.5 482.4 ms
0 0 0.376 r
(Making Vim Run)107.5 482.4 ms
0 g
( ~)s
0 0.498 0.498 r
(    99)59.5 472.4 ms
0 g
(|)107.5 472.4 ms
F1 sf
0.498 0.498 0 r
(usr_90.txt)s
F0 sf
0 g
(|  Installing Vim)s
0 0.498 0.498 r
(   100)59.5 462.4 ms
(   101)59.5 452.4 ms
0 g
(REFERENCE MANUAL: These files explain every detail of Vim.      *)107.5 452.4 ms
0.498 0.125 0.498 r
(reference_t)s
(oc)107.5 442.4 ms
0 g
(*)s
0 0.498 0.498 r
(   102)59.5 432.4 ms
(   103)59.5 422.4 ms
0 0 0.376 r
(General subjects)107.5 422.4 ms
0 g
( ~)s
0 0.498 0.498 r
(   104)59.5 412.4 ms
0 g
(|)107.5 412.4 ms
F1 sf
0.498 0.498 0 r
(intro.txt)s
F0 sf
0 g
(|     general introduction to Vim; notation used in help files)s
0 0.498 0.498 r
(   105)59.5 402.4 ms
0 g
(|)107.5 402.4 ms
F1 sf
0.498 0.498 0 r
(help.txt)s
F0 sf
0 g
(|      overview and quick reference \(this file\))s
0 0.498 0.498 r
(   106)59.5 392.4 ms
0 g
(|)107.5 392.4 ms
F1 sf
0.498 0.498 0 r
(helphelp.txt)s
F0 sf
0 g
(|  about using the help files)s
0 0.498 0.498 r
(   107)59.5 382.4 ms
0 g
(|)107.5 382.4 ms
F1 sf
0.498 0.498 0 r
(index.txt)s
F0 sf
0 g
(|     alphabetical index of all commands)s
0 0.498 0.498 r
(   108)59.5 372.4 ms
0 g
(|)107.5 372.4 ms
F1 sf
0.498 0.498 0 r
(help-tags)s
F0 sf
0 g
(|     all the tags you can jump to \(index of tags\))s
0 0.498 0.498 r
(   109)59.5 362.4 ms
0 g
(|)107.5 362.4 ms
F1 sf
0.498 0.498 0 r
(howto.txt)s
F0 sf
0 g
(|     how to do the most common editing tasks)s
0 0.498 0.498 r
(   110)59.5 352.4 ms
0 g
(|)107.5 352.4 ms
F1 sf
0.498 0.498 0 r
(tips.txt)s
F0 sf
0 g
(|      various tips on using Vim)s
0 0.498 0.498 r
(   111)59.5 342.4 ms
0 g
(|)107.5 342.4 ms
F1 sf
0.498 0.498 0 r
(message.txt)s
F0 sf
0 g
(|   \(error\) messages and explanations)s
0 0.498 0.498 r
(   112)59.5 332.4 ms
0 g
(|)107.5 332.4 ms
F1 sf
0.498 0.498 0 r
(quotes.txt)s
F0 sf
0 g
(|    remarks from users of Vim)s
0 0.498 0.498 r
(   113)59.5 322.4 ms
0 g
(|)107.5 322.4 ms
F1 sf
0.498 0.498 0 r
(todo.txt)s
F0 sf
0 g
(|      known problems and desired extensions)s
0 0.498 0.498 r
(   114)59.5 312.4 ms
0 g
(|)107.5 312.4 ms
F1 sf
0.498 0.498 0 r
(develop.txt)s
F0 sf
0 g
(|   development of Vim)s
0 0.498 0.498 r
(   115)59.5 302.4 ms
0 g
(|)107.5 302.4 ms
F1 sf
0.498 0.498 0 r
(debug.txt)s
F0 sf
0 g
(|     debugging Vim itself)s
0 0.498 0.498 r
(   116)59.5 292.4 ms
0 g
(|)107.5 292.4 ms
F1 sf
0.498 0.498 0 r
(uganda.txt)s
F0 sf
0 g
(|    Vim distribution conditions and what to do with your money)s
0 0.498 0.498 r
(   117)59.5 282.4 ms
(   118)59.5 272.4 ms
0 0 0.376 r
(Basic editing)107.5 272.4 ms
0 g
( ~)s
0 0.498 0.498 r
(   119)59.5 262.4 ms
0 g
(|)107.5 262.4 ms
F1 sf
0.498 0.498 0 r
(starting.txt)s
F0 sf
0 g
(|  starting Vim, Vim command arguments, initialisation)s
0 0.498 0.498 r
(   120)59.5 252.4 ms
0 g
(|)107.5 252.4 ms
F1 sf
0.498 0.498 0 r
(editing.txt)s
F0 sf
0 g
(|   editing and writing files)s
0 0.498 0.498 r
(   121)59.5 242.4 ms
0 g
(|)107.5 242.4 ms
F1 sf
0.498 0.498 0 r
(motion.txt)s
F0 sf
0 g
(|    commands for moving around)s
0 0.498 0.498 r
(   122)59.5 232.4 ms
0 g
(|)107.5 232.4 ms
F1 sf
0.498 0.498 0 r
(scroll.txt)s
F0 sf
0 g
(|    scrolling the text in the window)s
0 0.498 0.498 r
(   123)59.5 222.4 ms
0 g
(|)107.5 222.4 ms
F1 sf
0.498 0.498 0 r
(insert.txt)s
F0 sf
0 g
(|    Insert and Replace mode)s
0 0.498 0.498 r
(   124)59.5 212.4 ms
0 g
(|)107.5 212.4 ms
F1 sf
0.498 0.498 0 r
(change.txt)s
F0 sf
0 g
(|    deleting and replacing text)s
0 0.498 0.498 r
(   125)59.5 202.4 ms
0 g
(|)107.5 202.4 ms
F1 sf
0.498 0.498 0 r
(undo.txt)s
F0 sf
0 g
(|      Undo and Redo)s
0 0.498 0.498 r
(   126)59.5 192.4 ms
0 g
(|)107.5 192.4 ms
F1 sf
0.498 0.498 0 r
(repeat.txt)s
F0 sf
0 g
(|    repeating commands, Vim scripts and debugging)s
0 0.498 0.498 r
(   127)59.5 182.4 ms
0 g
(|)107.5 182.4 ms
F1 sf
0.498 0.498 0 r
(visual.txt)s
F0 sf
0 g
(|    using the Visual mode \(selecting a text area\))s
0 0.498 0.498 r
(   128)59.5 172.4 ms
0 g
(|)107.5 172.4 ms
F1 sf
0.498 0.498 0 r
(various.txt)s
F0 sf
0 g
(|   various remaining commands)s
0 0.498 0.498 r
(   129)59.5 162.4 ms
0 g
(|)107.5 162.4 ms
F1 sf
0.498 0.498 0 r
(recover.txt)s
F0 sf
0 g
(|   recovering from a crash)s
0 0.498 0.498 r
(   130)59.5 152.4 ms
(   131)59.5 142.4 ms
0 0 0.376 r
(Advanced editing)107.5 142.4 ms
0 g
( ~)s
0 0.498 0.498 r
(   132)59.5 132.4 ms
0 g
(|)107.5 132.4 ms
F1 sf
0.498 0.498 0 r
(cmdline.txt)s
F0 sf
0 g
(|   Command-line editing)s
0 0.498 0.498 r
(   133)59.5 122.4 ms
0 g
(|)107.5 122.4 ms
F1 sf
0.498 0.498 0 r
(options.txt)s
F0 sf
0 g
(|   description of all options)s
0 0.498 0.498 r
(   134)59.5 112.4 ms
0 g
(|)107.5 112.4 ms
F1 sf
0.498 0.498 0 r
(pattern.txt)s
F0 sf
0 g
(|   regexp patterns and search commands)s
0 0.498 0.498 r
(   135)59.5 102.4 ms
0 g
(|)107.5 102.4 ms
F1 sf
0.498 0.498 0 r
(map.txt)s
F0 sf
0 g
(|       key mapping and abbreviations)s
0 0.498 0.498 r
(   136)59.5 92.4 ms
0 g
(|)107.5 92.4 ms
F1 sf
0.498 0.498 0 r
(tagsrch.txt)s
F0 sf
0 g
(|   tags and special searches)s
0 0.498 0.498 r
(   137)59.5 82.4 ms
0 g
(|)107.5 82.4 ms
F1 sf
0.498 0.498 0 r
(windows.txt)s
F0 sf
0 g
(|   commands for using multiple windows and buffers)s
0 0.498 0.498 r
(   138)59.5 72.4 ms
0 g
(|)107.5 72.4 ms
F1 sf
0.498 0.498 0 r
(tabpage.txt)s
F0 sf
0 g
(|   commands for using multiple tab pages)s
0 0.498 0.498 r
(   139)59.5 62.4 ms
0 g
(|)107.5 62.4 ms
F1 sf
0.498 0.498 0 r
(spell.txt)s
F0 sf
0 g
(|     spell checking)s
0 0.498 0.498 r
(   140)59.5 52.4 ms
0 g
(|)107.5 52.4 ms
F1 sf
0.498 0.498 0 r
(diff.txt)s
F0 sf
0 g
(|      working with two to eight versions of the same file)s
re sp
%%PageTrailer
%%Page: 3 3
%%BeginPageSetup
sv
0 g
F0 sf
%%EndPageSetup
F1 sf
(help.txt[Help][-]                                                             Page 3)59.5 792.4 ms
F0 sf
0 0.498 0.498 r
(   141)59.5 772.4 ms
0 g
(|)107.5 772.4 ms
F1 sf
0.498 0.498 0 r
(autocmd.txt)s
F0 sf
0 g
(|   automatically executing commands on an event)s
0 0.498 0.498 r
(   142)59.5 762.4 ms
0 g
(|)107.5 762.4 ms
F1 sf
0.498 0.498 0 r
(eval.txt)s
F0 sf
0 g
(|      expression evaluation, conditional commands)s
0 0.498 0.498 r
(   143)59.5 752.4 ms
0 g
(|)107.5 752.4 ms
F1 sf
0.498 0.498 0 r
(builtin.txt)s
F0 sf
0 g
(|   builtin functions)s
0 0.498 0.498 r
(   144)59.5 742.4 ms
0 g
(|)107.5 742.4 ms
F1 sf
0.498 0.498 0 r
(channel.txt)s
F0 sf
0 g
(|   Jobs, Channels, inter-process communication)s
0 0.498 0.498 r
(   145)59.5 732.4 ms
0 g
(|)107.5 732.4 ms
F1 sf
0.498 0.498 0 r
(fold.txt)s
F0 sf
0 g
(|      hide \(fold\) ranges of lines)s
0 0.498 0.498 r
(   146)59.5 722.4 ms
(   147)59.5 712.4 ms
0 0 0.376 r
(Special issues)107.5 712.4 ms
0 g
( ~)s
0 0.498 0.498 r
(   148)59.5 702.4 ms
0 g
(|)107.5 702.4 ms
F1 sf
0.498 0.498 0 r
(testing.txt)s
F0 sf
0 g
(|   testing Vim and Vim scripts)s
0 0.498 0.498 r
(   149)59.5 692.4 ms
0 g
(|)107.5 692.4 ms
F1 sf
0.498 0.498 0 r
(print.txt)s
F0 sf
0 g
(|     printing)s
0 0.498 0.498 r
(   150)59.5 682.4 ms
0 g
(|)107.5 682.4 ms
F1 sf
0.498 0.498 0 r
(remote.txt)s
F0 sf
0 g
(|    using Vim as a server or client)s
0 0.498 0.498 r
(   151)59.5 672.4 ms
0 g
(|)107.5 672.4 ms
F1 sf
0.498 0.498 0 r
(term.txt)s
F0 sf
0 g
(|      using different terminals and mice)s
0 0.498 0.498 r
(   152)59.5 662.4 ms
0 g
(|)107.5 662.4 ms
F1 sf
0.498 0.498 0 r
(terminal.txt)s
F0 sf
0 g
(|  Terminal window support)s
0 0.498 0.498 r
(   153)59.5 652.4 ms
0 g
(|)107.5 652.4 ms
F1 sf
0.498 0.498 0 r
(popup.txt)s
F0 sf
0 g
(|     popup window support)s
0 0.498 0.498 r
(   154)59.5 642.4 ms
0 g
(|)107.5 642.4 ms
F1 sf
0.498 0.498 0 r
(vim9.txt)s
F0 sf
0 g
(|      using Vim9 script)s
0 0.498 0.498 r
(   155)59.5 632.4 ms
(   156)59.5 622.4 ms
0 0 0.376 r
(Programming language support)107.5 622.4 ms
0 g
( ~)s
0 0.498 0.498 r
(   157)59.5 612.4 ms
0 g
(|)107.5 612.4 ms
F1 sf
0.498 0.498 0 r
(indent.txt)s
F0 sf
0 g
(|    automatic indenting for C and other languages)s
0 0.498 0.498 r
(   158)59.5 602.4 ms
0 g
(|)107.5 602.4 ms
F1 sf
0.498 0.498 0 r
(syntax.txt)s
F0 sf
0 g
(|    syntax highlighting)s
0 0.498 0.498 r
(   159)59.5 592.4 ms
0 g
(|)107.5 592.4 ms
F1 sf
0.498 0.498 0 r
(textprop.txt)s
F0 sf
0 g
(|  Attaching properties to text for highlighting or other)s
0 0.498 0.498 r
(   160)59.5 582.4 ms
0 g
(|)107.5 582.4 ms
F1 sf
0.498 0.498 0 r
(filetype.txt)s
F0 sf
0 g
(|  settings done specifically for a type of file)s
0 0.498 0.498 r
(   161)59.5 572.4 ms
0 g
(|)107.5 572.4 ms
F1 sf
0.498 0.498 0 r
(quickfix.txt)s
F0 sf
0 g
(|  commands for a quick edit-compile-fix cycle)s
0 0.498 0.498 r
(   162)59.5 562.4 ms
0 g
(|)107.5 562.4 ms
F1 sf
0.498 0.498 0 r
(ft_ada.txt)s
F0 sf
0 g
(|    Ada \(the programming language\) support)s
0 0.498 0.498 r
(   163)59.5 552.4 ms
0 g
(|)107.5 552.4 ms
F1 sf
0.498 0.498 0 r
(ft_ps1.txt)s
F0 sf
0 g
(|    Filetype plugin for Windows PowerShell)s
0 0.498 0.498 r
(   164)59.5 542.4 ms
0 g
(|)107.5 542.4 ms
F1 sf
0.498 0.498 0 r
(ft_raku.txt)s
F0 sf
0 g
(|   Filetype plugin for Raku)s
0 0.498 0.498 r
(   165)59.5 532.4 ms
0 g
(|)107.5 532.4 ms
F1 sf
0.498 0.498 0 r
(ft_rust.txt)s
F0 sf
0 g
(|   Filetype plugin for Rust)s
0 0.498 0.498 r
(   166)59.5 522.4 ms
0 g
(|)107.5 522.4 ms
F1 sf
0.498 0.498 0 r
(ft_sql.txt)s
F0 sf
0 g
(|    about the SQL filetype plugin)s
0 0.498 0.498 r
(   167)59.5 512.4 ms
(   168)59.5 502.4 ms
0 0 0.376 r
(Language support)107.5 502.4 ms
0 g
( ~)s
0 0.498 0.498 r
(   169)59.5 492.4 ms
0 g
(|)107.5 492.4 ms
F1 sf
0.498 0.498 0 r
(digraph.txt)s
F0 sf
0 g
(|   list of available digraphs)s
0 0.498 0.498 r
(   170)59.5 482.4 ms
0 g
(|)107.5 482.4 ms
F1 sf
0.498 0.498 0 r
(mbyte.txt)s
F0 sf
0 g
(|     multibyte text support)s
0 0.498 0.498 r
(   171)59.5 472.4 ms
0 g
(|)107.5 472.4 ms
F1 sf
0.498 0.498 0 r
(mlang.txt)s
F0 sf
0 g
(|     non-English language support)s
0 0.498 0.498 r
(   172)59.5 462.4 ms
0 g
(|)107.5 462.4 ms
F1 sf
0.498 0.498 0 r
(rileft.txt)s
F0 sf
0 g
(|    right-to-left editing mode)s
0 0.498 0.498 r
(   173)59.5 452.4 ms
0 g
(|)107.5 452.4 ms
F1 sf
0.498 0.498 0 r
(arabic.txt)s
F0 sf
0 g
(|    Arabic language support and editing)s
0 0.498 0.498 r
(   174)59.5 442.4 ms
0 g
(|)107.5 442.4 ms
F1 sf
0.498 0.498 0 r
(farsi.txt)s
F0 sf
0 g
(|     Farsi \(Persian\) editing)s
0 0.498 0.498 r
(   175)59.5 432.4 ms
0 g
(|)107.5 432.4 ms
F1 sf
0.498 0.498 0 r
(hebrew.txt)s
F0 sf
0 g
(|    Hebrew language support and editing)s
0 0.498 0.498 r
(   176)59.5 422.4 ms
0 g
(|)107.5 422.4 ms
F1 sf
0.498 0.498 0 r
(russian.txt)s
F0 sf
0 g
(|   Russian language support and editing)s
0 0.498 0.498 r
(   177)59.5 412.4 ms
0 g
(|)107.5 412.4 ms
F1 sf
0.498 0.498 0 r
(hangulin.txt)s
F0 sf
0 g
(|  Hangul \(Korean\) input mode)s
0 0.498 0.498 r
(   178)59.5 402.4 ms
(   179)59.5 392.4 ms
0 0 0.376 r
(GUI)107.5 392.4 ms
0 g
( ~)s
0 0.498 0.498 r
(   180)59.5 382.4 ms
0 g
(|)107.5 382.4 ms
F1 sf
0.498 0.498 0 r
(gui.txt)s
F0 sf
0 g
(|       Graphical User Interface \(GUI\))s
0 0.498 0.498 r
(   181)59.5 372.4 ms
0 g
(|)107.5 372.4 ms
F1 sf
0.498 0.498 0 r
(gui_w32.txt)s
F0 sf
0 g
(|   Win32 GUI)s
0 0.498 0.498 r
(   182)59.5 362.4 ms
0 g
(|)107.5 362.4 ms
F1 sf
0.498 0.498 0 r
(gui_x11.txt)s
F0 sf
0 g
(|   X11 GUI)s
0 0.498 0.498 r
(   183)59.5 352.4 ms
(   184)59.5 342.4 ms
0 0 0.376 r
(Interfaces)107.5 342.4 ms
0 g
( ~)s
0 0.498 0.498 r
(   185)59.5 332.4 ms
0 g
(|)107.5 332.4 ms
F1 sf
0.498 0.498 0 r
(if_cscop.txt)s
F0 sf
0 g
(|  using Cscope with Vim)s
0 0.498 0.498 r
(   186)59.5 322.4 ms
0 g
(|)107.5 322.4 ms
F1 sf
0.498 0.498 0 r
(if_lua.txt)s
F0 sf
0 g
(|    Lua interface)s
0 0.498 0.498 r
(   187)59.5 312.4 ms
0 g
(|)107.5 312.4 ms
F1 sf
0.498 0.498 0 r
(if_mzsch.txt)s
F0 sf
0 g
(|  MzScheme interface)s
0 0.498 0.498 r
(   188)59.5 302.4 ms
0 g
(|)107.5 302.4 ms
F1 sf
0.498 0.498 0 r
(if_perl.txt)s
F0 sf
0 g
(|   Perl interface)s
0 0.498 0.498 r
(   189)59.5 292.4 ms
0 g
(|)107.5 292.4 ms
F1 sf
0.498 0.498 0 r
(if_pyth.txt)s
F0 sf
0 g
(|   Python interface)s
0 0.498 0.498 r
(   190)59.5 282.4 ms
0 g
(|)107.5 282.4 ms
F1 sf
0.498 0.498 0 r
(if_tcl.txt)s
F0 sf
0 g
(|    Tcl interface)s
0 0.498 0.498 r
(   191)59.5 272.4 ms
0 g
(|)107.5 272.4 ms
F1 sf
0.498 0.498 0 r
(if_ole.txt)s
F0 sf
0 g
(|    OLE automation interface for Win32)s
0 0.498 0.498 r
(   192)59.5 262.4 ms
0 g
(|)107.5 262.4 ms
F1 sf
0.498 0.498 0 r
(if_ruby.txt)s
F0 sf
0 g
(|   Ruby interface)s
0 0.498 0.498 r
(   193)59.5 252.4 ms
0 g
(|)107.5 252.4 ms
F1 sf
0.498 0.498 0 r
(debugger.txt)s
F0 sf
0 g
(|  Interface with a debugger)s
0 0.498 0.498 r
(   194)59.5 242.4 ms
0 g
(|)107.5 242.4 ms
F1 sf
0.498 0.498 0 r
(netbeans.txt)s
F0 sf
0 g
(|  NetBeans External Editor interface)s
0 0.498 0.498 r
(   195)59.5 232.4 ms
0 g
(|)107.5 232.4 ms
F1 sf
0.498 0.498 0 r
(sign.txt)s
F0 sf
0 g
(|      debugging signs)s
0 0.498 0.498 r
(   196)59.5 222.4 ms
(   197)59.5 212.4 ms
0 0 0.376 r
(Versions)107.5 212.4 ms
0 g
( ~)s
0 0.498 0.498 r
(   198)59.5 202.4 ms
0 g
(|)107.5 202.4 ms
F1 sf
0.498 0.498 0 r
(vi_diff.txt)s
F0 sf
0 g
(|   Main differences between Vim and Vi)s
0 0.498 0.498 r
(   199)59.5 192.4 ms
0 g
(|)107.5 192.4 ms
F1 sf
0.498 0.498 0 r
(version4.txt)s
F0 sf
0 g
(|  Differences between )s
F1 sf
0.498 0.498 0 r
(Vim version 3.0)s
F0 sf
0 g
( and 4.x)s
0 0.498 0.498 r
(   200)59.5 182.4 ms
0 g
(|)107.5 182.4 ms
F1 sf
0.498 0.498 0 r
(version5.txt)s
F0 sf
0 g
(|  Differences between )s
F1 sf
0.498 0.498 0 r
(Vim version 4.6)s
F0 sf
0 g
( and 5.x)s
0 0.498 0.498 r
(   201)59.5 172.4 ms
0 g
(|)107.5 172.4 ms
F1 sf
0.498 0.498 0 r
(version6.txt)s
F0 sf
0 g
(|  Differences between )s
F1 sf
0.498 0.498 0 r
(Vim version 5.7)s
F0 sf
0 g
( and 6.x)s
0 0.498 0.498 r
(   202)59.5 162.4 ms
0 g
(|)107.5 162.4 ms
F1 sf
0.498 0.498 0 r
(version7.txt)s
F0 sf
0 g
(|  Differences between )s
F1 sf
0.498 0.498 0 r
(Vim version 6.4)s
F0 sf
0 g
( and 7.x)s
0 0.498 0.498 r
(   203)59.5 152.4 ms
0 g
(|)107.5 152.4 ms
F1 sf
0.498 0.498 0 r
(version8.txt)s
F0 sf
0 g
(|  Differences between )s
F1 sf
0.498 0.498 0 r
(Vim version 7.4)s
F0 sf
0 g
( and 8.x)s
0 0.498 0.498 r
(   204)59.5 142.4 ms
0 g
(|)107.5 142.4 ms
F1 sf
0.498 0.498 0 r
(version9.txt)s
F0 sf
0 g
(|  Differences between )s
F1 sf
0.498 0.498 0 r
(Vim version 8.2)s
F0 sf
0 g
( and 9.0)s
0 0.498 0.498 r
(   205)59.5 132.4 ms
0 g
(                                                *)107.5 132.4 ms
0.498 0.125 0.498 r
(sys-file-list)s
0 g
(*)s
0 0.498 0.498 r
(   206)59.5 122.4 ms
0 0 0.376 r
(Remarks about specific systems)107.5 122.4 ms
0 g
( ~)s
0 0.498 0.498 r
(   207)59.5 112.4 ms
0 g
(|)107.5 112.4 ms
F1 sf
0.498 0.498 0 r
(os_390.txt)s
F0 sf
0 g
(|    OS/390 Unix)s
0 0.498 0.498 r
(   208)59.5 102.4 ms
0 g
(|)107.5 102.4 ms
F1 sf
0.498 0.498 0 r
(os_amiga.txt)s
F0 sf
0 g
(|  Amiga)s
0 0.498 0.498 r
(   209)59.5 92.4 ms
0 g
(|)107.5 92.4 ms
F1 sf
0.498 0.498 0 r
(os_beos.txt)s
F0 sf
0 g
(|   BeOS and BeBox)s
0 0.498 0.498 r
(   210)59.5 82.4 ms
0 g
(|)107.5 82.4 ms
F1 sf
0.498 0.498 0 r
(os_dos.txt)s
F0 sf
0 g
(|    MS-DOS and MS-Windows common items)s
0 0.498 0.498 r
(   211)59.5 72.4 ms
0 g
(|)107.5 72.4 ms
F1 sf
0.498 0.498 0 r
(os_haiku.txt)s
F0 sf
0 g
(|  Haiku)s
0 0.498 0.498 r
(   212)59.5 62.4 ms
0 g
(|)107.5 62.4 ms
F1 sf
0.498 0.498 0 r
(os_mac.txt)s
F0 sf
0 g
(|    Macintosh)s
0 0.498 0.498 r
(   213)59.5 52.4 ms
0 g
(|)107.5 52.4 ms
F1 sf
0.498 0.498 0 r
(os_mint.txt)s
F0 sf
0 g
(|   Atari MiNT)s
re sp
%%PageTrailer
%%Page: 4 4
%%BeginPageSetup
sv
0 g
F0 sf
%%EndPageSetup
F1 sf
(help.txt[Help][-]                                                             Page 4)59.5 792.4 ms
F0 sf
0 0.498 0.498 r
(   214)59.5 772.4 ms
0 g
(|)107.5 772.4 ms
F1 sf
0.498 0.498 0 r
(os_msdos.txt)s
F0 sf
0 g
(|  MS-DOS \(plain DOS and DOS box under Windows\))s
0 0.498 0.498 r
(   215)59.5 762.4 ms
0 g
(|)107.5 762.4 ms
F1 sf
0.498 0.498 0 r
(os_os2.txt)s
F0 sf
0 g
(|    OS/2)s
0 0.498 0.498 r
(   216)59.5 752.4 ms
0 g
(|)107.5 752.4 ms
F1 sf
0.498 0.498 0 r
(os_qnx.txt)s
F0 sf
0 g
(|    QNX)s
0 0.498 0.498 r
(   217)59.5 742.4 ms
0 g
(|)107.5 742.4 ms
F1 sf
0.498 0.498 0 r
(os_risc.txt)s
F0 sf
0 g
(|   RISC-OS)s
0 0.498 0.498 r
(   218)59.5 732.4 ms
0 g
(|)107.5 732.4 ms
F1 sf
0.498 0.498 0 r
(os_unix.txt)s
F0 sf
0 g
(|   Unix)s
0 0.498 0.498 r
(   219)59.5 722.4 ms
0 g
(|)107.5 722.4 ms
F1 sf
0.498 0.498 0 r
(os_vms.txt)s
F0 sf
0 g
(|    VMS)s
0 0.498 0.498 r
(   220)59.5 712.4 ms
0 g
(|)107.5 712.4 ms
F1 sf
0.498 0.498 0 r
(os_win32.txt)s
F0 sf
0 g
(|  MS-Windows)s
0 0.498 0.498 r
(   221)59.5 702.4 ms
0 g
(                                                *)107.5 702.4 ms
0.498 0.125 0.498 r
(standard-plugin-list)s
0 g
(*)s
0 0.498 0.498 r
(   222)59.5 692.4 ms
0 0 0.376 r
(Standard plugins)107.5 692.4 ms
0 g
( ~)s
0 0.498 0.498 r
(   223)59.5 682.4 ms
0 g
(|)107.5 682.4 ms
F1 sf
0.498 0.498 0 r
(pi_getscript.txt)s
F0 sf
0 g
(| Downloading latest version of Vim scripts)s
0 0.498 0.498 r
(   224)59.5 672.4 ms
0 g
(|)107.5 672.4 ms
F1 sf
0.498 0.498 0 r
(pi_gzip.txt)s
F0 sf
0 g
(|      Reading and writing compressed files)s
0 0.498 0.498 r
(   225)59.5 662.4 ms
0 g
(|)107.5 662.4 ms
F1 sf
0.498 0.498 0 r
(pi_logipat.txt)s
F0 sf
0 g
(|   Logical operators on patterns)s
0 0.498 0.498 r
(   226)59.5 652.4 ms
0 g
(|)107.5 652.4 ms
F1 sf
0.498 0.498 0 r
(pi_netrw.txt)s
F0 sf
0 g
(|     Reading and writing files over a network)s
0 0.498 0.498 r
(   227)59.5 642.4 ms
0 g
(|)107.5 642.4 ms
F1 sf
0.498 0.498 0 r
(pi_paren.txt)s
F0 sf
0 g
(|     Highlight matching parens)s
0 0.498 0.498 r
(   228)59.5 632.4 ms
0 g
(|)107.5 632.4 ms
F1 sf
0.498 0.498 0 r
(pi_spec.txt)s
F0 sf
0 g
(|      Filetype plugin to work with rpm spec files)s
0 0.498 0.498 r
(   229)59.5 622.4 ms
0 g
(|)107.5 622.4 ms
F1 sf
0.498 0.498 0 r
(pi_tar.txt)s
F0 sf
0 g
(|       Tar file explorer)s
0 0.498 0.498 r
(   230)59.5 612.4 ms
0 g
(|)107.5 612.4 ms
F1 sf
0.498 0.498 0 r
(pi_vimball.txt)s
F0 sf
0 g
(|   Create a self-installing Vim script)s
0 0.498 0.498 r
(   231)59.5 602.4 ms
0 g
(|)107.5 602.4 ms
F1 sf
0.498 0.498 0 r
(pi_zip.txt)s
F0 sf
0 g
(|       Zip archive explorer)s
0 0.498 0.498 r
(   232)59.5 592.4 ms
(   233)59.5 582.4 ms
0 g
(LOCAL ADDITIONS:                                *)107.5 582.4 ms
0.498 0.125 0.498 r
(local-additions)s
0 g
(*)s
0 0.498 0.498 r
(   234)59.5 572.4 ms
0 g
(|)107.5 572.4 ms
F1 sf
0.498 0.498 0 r
(fugitive.txt)s
F0 sf
0 g
(|  A Git wrapper so awesome, it should be illegal)s
0 0.498 0.498 r
(   235)59.5 562.4 ms
(   236)59.5 552.4 ms
0 0 0.376 r
(----------------------------------------------------------------------------)107.5 552.4 ms
(--)107.5 542.4 ms
0 0.498 0.498 r
(   237)59.5 532.4 ms
0 g
(*)107.5 532.4 ms
0.498 0.125 0.498 r
(bars)s
0 g
(*          Bars example)s
0 0.498 0.498 r
(   238)59.5 522.4 ms
(   239)59.5 512.4 ms
0 g
(Now that you've jumped here with CTRL-] or a double mouse click, you can use)107.5 512.4 ms
0 0.498 0.498 r
(   240)59.5 502.4 ms
0 g
(CTRL-T, CTRL-O, g<RightMouse>, or <C-RightMouse> to go back to where you wer)107.5 502.4 ms
(e.)107.5 492.4 ms
0 0.498 0.498 r
(   241)59.5 482.4 ms
(   242)59.5 472.4 ms
0 g
(Note that tags are within | characters, but when highlighting is enabled the)107.5 472.4 ms
(se)107.5 462.4 ms
0 0.498 0.498 r
(   243)59.5 452.4 ms
0 g
(characters are hidden.  That makes it easier to read a command.)107.5 452.4 ms
0 0.498 0.498 r
(   244)59.5 442.4 ms
(   245)59.5 432.4 ms
0 g
(Anyway, you can use CTRL-] on any word, also when it is not within |, and Vi)107.5 432.4 ms
(m)107.5 422.4 ms
0 0.498 0.498 r
(   246)59.5 412.4 ms
0 g
(will try to find help for it.  Especially for options in single quotes, e.g.)107.5 412.4 ms
0 0.498 0.498 r
(   247)59.5 402.4 ms
0.188 0.188 0.498 r
('compatible')107.5 402.4 ms
0 g
(.)s
0 0.498 0.498 r
(   248)59.5 392.4 ms
(   249)59.5 382.4 ms
0 0 0.376 r
(----------------------------------------------------------------------------)107.5 382.4 ms
(--)107.5 372.4 ms
0 0.498 0.498 r
(   250)59.5 362.4 ms
0 g
( vim:tw=78:isk=!-~,^*,^\\|,^\\":ts=8:noet:ft=help:norl:)107.5 362.4 ms
re sp
%%PageTrailer
%%Trailer
%%Pages: 4
%%EOF

